Working with miniTCGA data
…
## Warning: Unknown or uninitialised column: `submission`.

rm(x,y)

results %>% select(-filename)

## # A tibble: 1 x 6
##   team_name  team_people        team_error n_tumor n_normal submission          
##   <chr>      <chr>                   <dbl>   <int>    <int> <list>              
## 1 team_palle Palle,Thomas,Asger      0.103    1158       14 <tibble [1,172 x 1]>

results$submission[[1]]

## # A tibble: 1,172 x 1
##    predicted
##    <chr>    
##  1 Tumor    
##  2 Tumor    
##  3 Tumor    
##  4 Tumor    
##  5 Tumor    
##  6 Tumor    
##  7 Tumor    
##  8 Tumor    
##  9 Tumor    
## 10 Tumor    
## # ... with 1,162 more rows
…
